[gd_scene load_steps=3 format=2]

[ext_resource path="res://src/Pieces/WhiteKing.tscn" type="PackedScene" id=1]
[ext_resource path="res://assets/chessPieces/blackKing.png" type="Texture" id=2]

[node name="BlackKing" instance=ExtResource( 1 )]
collision_layer = 4
collision_mask = 2
color = 1

[node name="Sprite" parent="." index="0"]
texture = ExtResource( 2 )

[node name="TopLeft" parent="MovementPaths" index="0"]
collision_layer = 16
collision_mask = 7

[node name="TopRight" parent="MovementPaths" index="1"]
collision_layer = 16
collision_mask = 7

[node name="BottomLeft" parent="MovementPaths" index="2"]
collision_layer = 16
collision_mask = 7

[node name="BottomRight" parent="MovementPaths" index="3"]
collision_layer = 16
collision_mask = 7

[node name="Top" parent="MovementPaths" index="4"]
collision_layer = 16
collision_mask = 7

[node name="Bottom" parent="MovementPaths" index="5"]
collision_layer = 16
collision_mask = 7

[node name="Left" parent="MovementPaths" index="6"]
collision_layer = 16
collision_mask = 7

[node name="Right" parent="MovementPaths" index="7"]
collision_layer = 16
collision_mask = 7

[node name="CastleLeft" parent="SpecialtyMovement" index="0"]
collision_layer = 16
collision_mask = 15

[node name="CastleRight" parent="SpecialtyMovement" index="1"]
collision_layer = 16
collision_mask = 15
